{"keys":
  [{
    "e":"AQAB",
    "n":"4Vn5ClnjxtCCsQmyjGy9KafEC-LOi7nOaUGdghStuaAQ5mMLlJ8uQ2rYUJzkzOXAb1aDfPPL8OWMdpJFiniQ870hQ_fbSvHc7E7liELrTVBQbPco_Vqq-C6X69zcZJ4nBGskwvkf6yRMiFfnO6fNcd036_hh12GOErNHvzb7QSLop0sWBJFh-fkSzBMXL4P6pwwUB9Oo0ytgxuXSETRf3tAZsDhQqButjc4A14g8Nf351r92Xz9O9KZGmrzJqeQ83lkUiiQF7NtMRQRuUr_bwKBrK6fl1ni4Rqyt9uZA3_YXotyOkFKuc5tktVklRG6c-Iq_t-i6pVjoSuqAXGW_Hw",
    "kty":"RSA","kid":"BUz1KZ5T26VWTZ_hhxUn7iRNO5UkM2VMePxYqytei28","alg":"RS256","use":"sig"},
    {"e":"AQAB","n":"rJR38CK0ziZ2xNPwku1XLEEJPDH6rrSh2J2Q8CKbq5mEyRx_uSNkNDl08H_0kj2tmLpt6IZoWakscvulyzh8naNd5Dx-mMQxcUkun5t4hET2yw-1Ypr5_l1ec0hd3S9JVdE0DXp9qsCrGY4U1XS89b0kbl2fXB91P5DcynsnOb5DoaJC8Y6vUpg4BOrWHkkyOkmEl_UF8H5ZnaX2JS4zQsz25SVXq2dSdRrENtENiw51XR0BWGneFTAXXwa7eX2UFrn3f4Oh-lMdq9F83VbXjO--52Q8rKfc_yLDKFz_kfGqWPtKaoqM0pAvfHXRjtPV9UzuKZghwhNZS6TuL_BRnQ",
    "kty":"RSA","kid":"ID487IcFXZvtT7PQqNPfCcSRVbCXhbMXTrqdv1le7lA","alg":"RS256","use":"sig"}
]}

